[
    {
        "action_name": "Create product",
        "action_key": "create_sale",
        "description": "For individual anyone to create a products.",
        "paths": [
            "/products"
        ],
        "method": "POST"
    },
    {
        "action_name": "List products",
        "action_key": "list_products",
        "description": "Get list of all products",
        "paths": [
            "/products"
        ],
        "method": "GET"
    },
    {
        "action_name": "View product details",
        "action_key": "view_product",
        "description": "View details of a product",
        "paths": [
            "/products/:id"
        ],
        "method": "GET"
    },
    {
        "action_name": "Update product details",
        "action_key": "update_product",
        "description": "Update details of a product",
        "paths": [
            "/products/:id"
        ],
        "method": "PUT"
    },
    {
        "action_name": "Delete product",
        "action_key": "delete_product",
        "description": "Delete a product",
        "paths": [
            "/products/:id"
        ],
        "method": "DELETE"
    },
    {
        "action_name": "Create broadcast message",
        "action_key": "create_broadcast",
        "description": "For individual anyone to create a broadcast.",
        "paths": [
            "/broadcast"
        ],
        "method": "POST"
    },
    {
        "action_name": "List broadcasts",
        "action_key": "list_broadcasts",
        "description": "Get list of all broadcasts",
        "paths": [
            "/broadcasts"
        ],
        "method": "GET"
    },
    {
        "action_name": "View broadcast details",
        "action_key": "view_broadcast",
        "description": "View details of a broadcast",
        "paths": [
            "/broadcasts/:id"
        ],
        "method": "GET"
    },
    {
        "action_name": "Update broadcast details",
        "action_key": "update_broadcast",
        "description": "Update details of a broadcast",
        "paths": [
            "/broadcasts/:id"
        ],
        "method": "PUT"
    },
    {
        "action_name": "Delete broadcast",
        "action_key": "delete_broadcast",
        "description": "Delete a broadcast",
        "paths": [
            "/broadcasts/:id"
        ],
        "method": "DELETE"
    },
    {
        "action_name": "Send broadcast",
        "action_key": "send_broadcast",
        "description": "Send broadcasts to staffs and customers.",
        "paths": [
            "/broadcasts/send/:id"
        ],
        "method": "POST"
    },
    {
        "action_name": "Register new staff",
        "action_key": "create_staff",
        "description": "To create a new staff account.",
        "paths": [
            "/staff"
        ],
        "method": "POST"
    },
    {
        "action_name": "List staffs",
        "action_key": "list_staffs",
        "description": "Get list of all staffs",
        "paths": [
            "/staffs"
        ],
        "method": "GET"
    },
    {
        "action_name": "View staff details",
        "action_key": "view_staff",
        "description": "View details of a staff",
        "paths": [
            "/staffs/:id"
        ],
        "method": "GET"
    },
    {
        "action_name": "Update staff details",
        "action_key": "update_staff",
        "description": "Update details of a staff",
        "paths": [
            "/staffs/:id"
        ],
        "method": "PUT"
    },
    {
        "action_name": "Delete staff",
        "action_key": "delete_staff",
        "description": "Delete a staff",
        "paths": [
            "/staffs/:id"
        ],
        "method": "PUT"
    },
    {
        "action_name": "Create new product categories",
        "action_key": "create_category",
        "description": "To create a new product category.",
        "paths": [
            "/categories"
        ],
        "method": "POST"
    },
    {
        "action_name": "List product categories",
        "action_key": "list_categories",
        "description": "Get list of all categories",
        "paths": [
            "/categories"
        ],
        "method": "GET"
    },
    {
        "action_name": "View category details",
        "action_key": "view_category",
        "description": "View details of a category",
        "paths": [
            "/categories/:id"
        ],
        "method": "GET"
    },
    {
        "action_name": "Update category details",
        "action_key": "update_category",
        "description": "Update details of a category",
        "paths": [
            "/categories/:id"
        ],
        "method": "PUT"
    },
    {
        "action_name": "Delete category",
        "action_key": "delete_category",
        "description": "Delete a category",
        "paths": [
            "/categories/:id"
        ],
        "method": "DELETE"
    },
    {
        "action_name": "Create new customer account",
        "action_key": "create_customer",
        "description": "To create a new customer account.",
        "paths": [
            "/customers"
        ],
        "method": "POST"
    },
    {
        "action_name": "List customers",
        "action_key": "list_customers",
        "description": "Get list of all customers",
        "paths": [
            "/customers"
        ],
        "method": "GET"
    },
    {
        "action_name": "View customer details",
        "action_key": "view_customer",
        "description": "View details of a customer",
        "paths": [
            "/customers/:id"
        ],
        "method": "GET"
    },
    {
        "action_name": "Update customer details",
        "action_key": "update_customer",
        "description": "Update details of a customer",
        "paths": [
            "/customers/:id"
        ],
        "method": "PUT"
    },
    {
        "action_name": "Delete customer",
        "action_key": "delete_customer",
        "description": "Delete a customer",
        "paths": [
            "/customers/:id"
        ],
        "method": "DELETE"
    },
    {
        "action_name": "Post sales",
        "action_key": "post_sale",
        "description": "For individual 'employee' to post new sales.",
        "paths": [
            "/sales"
        ],
        "method": "POST"
    },
    {
        "action_name": "List sales",
        "action_key": "list_sales",
        "description": "For individual 'employee' to view the list of their sales.",
        "paths": [
            "/sales"
        ],
        "method": "GET"
    },
    {
        "action_name": "View sales details",
        "action_key": "view_sale",
        "description": "For individual 'employee' to view the detail of a sale.",
        "paths": [
            "/sales/:id"
        ],
        "method": "GET"
    },
    {
        "action_name": "List purchases",
        "action_key": "list_purchases",
        "description": "For individual customers to view the list of their purchases.",
        "paths": [
            "/purchases"
        ],
        "method": "GET"
    },
    {
        "action_name": "View purchase details",
        "action_key": "view_purchase",
        "description": "For individual customers to view the detail of a purchase.",
        "paths": [
            "/purchases/:id"
        ],
        "method": "GET"
    }
]